module dealls-app-date-interaction-service

go 1.18

require (
	github.com/dgrijalva/jwt-go v3.2.1-0.20200107013213-dc14462fd587+incompatible
	github.com/evalphobia/logrus_fluent v0.5.4
	github.com/gocarina/gocsv v0.0.0-20230616125104-99d496ca653d
	github.com/grpc-ecosystem/grpc-gateway/v2 v2.16.0
	github.com/joho/godotenv v1.5.1
	github.com/lib/pq v1.10.9
	github.com/sirupsen/logrus v1.7.0
	github.com/spf13/viper v1.7.0
	github.com/stretchr/testify v1.8.4
	github.com/urfave/cli v1.22.14
	go.elastic.co/apm/module/apmgrpc/v2 v2.4.3
	go.elastic.co/apm/module/apmhttp/v2 v2.4.3
	go.elastic.co/apm/v2 v2.4.3
	go.elastic.co/ecslogrus v1.0.0
	google.golang.org/grpc v1.64.0
	google.golang.org/protobuf v1.33.0
)

require (
	github.com/golang/protobuf v1.5.4
	github.com/mwitkow/go-proto-validators v0.3.2
	google.golang.org/genproto/googleapis/api v0.0.0-20240318140521-94a12d6c2237
)

require (
	github.com/armon/go-radix v1.0.0 // indirect
	github.com/bmizerany/assert v0.0.0-20160611221934-b7ed37b82869 // indirect
	github.com/cpuguy83/go-md2man/v2 v2.0.2 // indirect
	github.com/davecgh/go-spew v1.1.1 // indirect
	github.com/elastic/go-sysinfo v1.7.1 // indirect
	github.com/elastic/go-windows v1.0.0 // indirect
	github.com/fluent/fluent-logger-golang v1.9.0 // indirect
	github.com/fsnotify/fsnotify v1.4.9 // indirect
	github.com/gogo/protobuf v1.3.0 // indirect
	github.com/hashicorp/hcl v1.0.0 // indirect
	github.com/joeshaw/multierror v0.0.0-20140124173710-69b34d4ec901 // indirect
	github.com/magefile/mage v1.9.0 // indirect
	github.com/magiconair/properties v1.8.1 // indirect
	github.com/mitchellh/mapstructure v1.1.2 // indirect
	github.com/pelletier/go-toml v1.2.0 // indirect
	github.com/philhofer/fwd v1.1.2 // indirect
	github.com/pkg/errors v0.9.1 // indirect
	github.com/pmezard/go-difflib v1.0.0 // indirect
	github.com/prometheus/procfs v0.0.0-20190507164030-5867b95ac084 // indirect
	github.com/rogpeppe/go-internal v1.12.0 // indirect
	github.com/russross/blackfriday/v2 v2.1.0 // indirect
	github.com/spf13/afero v1.10.0 // indirect
	github.com/spf13/cast v1.3.0 // indirect
	github.com/spf13/jwalterweatherman v1.0.0 // indirect
	github.com/spf13/pflag v1.0.3 // indirect
	github.com/stretchr/objx v0.5.0 // indirect
	github.com/subosito/gotenv v1.2.0 // indirect
	github.com/tinylib/msgp v1.1.9 // indirect
	go.elastic.co/fastjson v1.1.0 // indirect
	golang.org/x/net v0.23.0 // indirect
	golang.org/x/sys v0.18.0 // indirect
	golang.org/x/text v0.14.0 // indirect
	google.golang.org/genproto/googleapis/rpc v0.0.0-20240318140521-94a12d6c2237 // indirect
	google.golang.org/grpc/examples v0.0.0-20240524182000-03da31acc663 // indirect
	gopkg.in/ini.v1 v1.51.0 // indirect
	gopkg.in/yaml.v2 v2.4.0 // indirect
	gopkg.in/yaml.v3 v3.0.1 // indirect
	howett.net/plist v0.0.0-20181124034731-591f970eefbb // indirect
)
